…
    ## # A tsibble: 468 x 2 [1M]
    ##       index value
    ##       <mth> <dbl>
    ##  1 1959 Jan  315.
    ##  2 1959 Feb  316.
    ##  3 1959 Mar  316.
    ##  4 1959 Apr  318.
    ##  5 1959 May  318.
    ##  6 1959 Jun  318 
    ##  7 1959 Jul  316.
    ##  8 1959 Aug  315.
    ##  9 1959 Sep  314.
    ## 10 1959 Oct  313.
    ## # ℹ 458 more rows
…
